DISPLAY
Serial
	02AA01AC43140G4R
Software Version
	4.2.5
Model
	Display-2.12
__________________
BASE
Software Version
	4.0.28/2.1
Model
	Backplate-2.21
Serial
	02BA04AC43140BEM
_______________
MAC address
	18b430152917
Wireless Agency
	A2
_______________
Battery: 3.822V