Name	        	Number	        Email
Charlie Curtis		678-362-8664	ccurtis9@uga.edu
Tyler Goss	    	706-498-0847	tygoss@uga.edu
Daniel Wade	    	706-599-2954	sipher@uga.edu
James Chen	    	858-900-8588	Jiahchen@uga.edu
Elliott Tanner		404-387-4050	elliott2@uga.edu

Sponsors
Dr. Kyle Johnsen                	kjohnsen@uga.edu
Dr. Thomas Lawrence             	lawrence@engr.uga.edu